*** Life<FredkinCell> 6x3 ***

Generation = 0, Population = 18.
000
000
000
000
000
000

Generation = 4, Population = 6.
---
---
212
212
---
---

Generation = 8, Population = 6.
030
---
---
---
---
030

*** Life<FredkinCell> 6x6 ***

Generation = 0, Population = 36.
000000
000000
000000
000000
000000
000000

Generation = 2, Population = 16.
-2--2-
2-00-2
-0--0-
-0--0-
2-00-2
-2--2-

Generation = 4, Population = 16.
--11--
--22--
12--21
12--21
--22--
--11--

Generation = 6, Population = 8.
--11--
------
1----1
1----1
------
--11--

Generation = 8, Population = 16.
-3333-
3----3
3----3
3----3
3----3
-3333-

Generation = 10, Population = 8.
------
--33--
-3--3-
-3--3-
--33--
------

*** Life<FredkinCell> 3x6 ***

Generation = 0, Population = 18.
000000
000000
000000

Generation = 2, Population = 6.
-2--2-
-0--0-
-2--2-

Generation = 4, Population = 6.
--22--
--11--
--22--

Generation = 6, Population = 12.
04--40
11--11
04--40

Generation = 8, Population = 6.
0----0
3----3
0----0

*** Life<FredkinCell> 15x5 ***

Generation = 0, Population = 4.
--0--
-----
-----
0--0-
----0
-----
-----
-----
-----
-----
-----
-----
-----
-----
-----

Generation = 2, Population = 15.
0-0-0
0--0-
--0-0
011--
--0-0
0--0-
----0
-----
-----
-----
-----
-----
-----
-----
-----

*** Life<FredkinCell> 15x1 ***

Generation = 0, Population = 15.
0
0
0
0
0
0
0
0
0
0
0
0
0
0
0

Generation = 2, Population = 2.
-
0
-
-
-
-
-
-
-
-
-
-
-
0
-

Generation = 4, Population = 2.
-
-
-
0
-
-
-
-
-
-
-
0
-
-
-

Generation = 6, Population = 4.
-
0
-
-
-
0
-
-
-
0
-
-
-
0
-

Generation = 8, Population = 0.
-
-
-
-
-
-
-
-
-
-
-
-
-
-
-

Generation = 10, Population = 0.
-
-
-
-
-
-
-
-
-
-
-
-
-
-
-

*** Life<FredkinCell> 11x5 ***

Generation = 0, Population = 39.
0-000
0000-
000-0
0-00-
00-00
0-0-0
---00
-00--
0-00-
00000
00000

Generation = 4, Population = 27.
--1--
4-0-1
124--
00-0-
21-0-
----0
0-0--
-4113
4--0-
-----
01122

Generation = 8, Population = 23.
1-322
6-0--
-65--
-----
42--1
----1
1-222
1-3-7
---2-
----3
-11--

*** Life<FredkinCell> 9x7 ***

Generation = 0, Population = 9.
-------
-0-0---
--0--0-
-0-----
-------
----0--
----0--
-----0-
------0

Generation = 3, Population = 26.
-0--010
0--1020
--0----
-------
-01----
0110--1
--1-100
---110-
---00--

Generation = 6, Population = 36.
-100--1
--04-50
2-1-122
02-0110
-01----
1-21214
---02-0
10-1--0
----00-

Generation = 9, Population = 22.
---02--
---445-
-0--1--
0----4-
-0-0--1
1-24---
---12--
2----0-
---01-0

*** Life<FredkinCell> 13x3 ***

Generation = 0, Population = 33.
00-
000
-00
000
000
000
00-
00-
-00
000
000
000
00-

Generation = 2, Population = 18.
---
000
1--
---
2-2
--0
--0
0-0
1--
--2
2-2
200
0--

Generation = 4, Population = 12.
1--
---
---
00-
2-4
---
2--
---
--0
014
---
--0
2--

Generation = 6, Population = 19.
--0
10-
--1
0-1
4--
10-
--0
212
--2
--4
4-2
-1-
--1

Generation = 8, Population = 13.
2-0
---
---
---
4-5
120
---
414
--2
---
---
--1
--1

Generation = 10, Population = 19.
2-0
---
---
213
---
120
2--
614
3-4
11-
---
3-3
2--

*** Life<FredkinCell> 11x2 ***

Generation = 0, Population = 22.
00
00
00
00
00
00
00
00
00
00
00

Generation = 2, Population = 18.
00
--
22
22
22
22
22
22
22
--
00

Generation = 4, Population = 18.
22
11
22
--
44
44
44
--
22
11
22

*** Life<FredkinCell> 10x5 ***

Generation = 0, Population = 13.
-0-00
-----
-----
----0
00-00
--0--
-0-0-
-----
----0
0----

Generation = 2, Population = 15.
--0--
----1
0----
----2
2---0
1----
1----
0-0--
-0010
--0--

*** Life<FredkinCell> 12x3 ***

Generation = 0, Population = 35.
000
000
000
000
000
000
00-
000
000
000
000
000

*** Life<FredkinCell> 1x3 ***

Generation = 0, Population = 2.
00-

*** Life<FredkinCell> 13x9 ***

Generation = 0, Population = 77.
0000000--
00-000-00
0-0000-0-
00---0-0-
------0-0
---00000-
00000-00-
00000--00
-0--0-0-0
0--0-00-0
000000000
--0-00000
00-000000

Generation = 2, Population = 52.
-----2--1
-----2--2
0-2--2000
-20--2120
-1--11---
-1---000-
---02-0-0
00-2---0-
--0121--0
--0-0--1-
00-2-0---
--2---002
221-2--2-

Generation = 4, Population = 61.
0-01----3
-011-2---
-14224222
02---4--0
1--1332--
1-112-22-
---041--0
2--2210--
--03--21-
-0-121--0
--12----2
0-4-2022-
--1---14-

Generation = 6, Population = 61.
0-0----13
----1--12
03--24222
-20-14--2
1-0155--1
---14----
01-24---0
--144----
112-43--0
-0-3-3--2
21-2201-4
-0--4-42-
4--2-114-

Generation = 8, Population = 47.
-1------3
-1--3----
2--4-----
1-013----
-2--5-3-3
--23--2-0
2----2--0
2-1---0-0
----43332
--25-3--2
4-12-21-6
-25-6-6--
4-32-----

*** Life<FredkinCell> 15x2 ***

Generation = 0, Population = 15.
--
0-
--
0-
-0
-0
00
0-
0-
-0
0-
00
0-
0-
-0

Generation = 4, Population = 16.
-0
-1
12
--
02
0-
-1
20
-2
0-
--
-2
-2
-2
-0

*** Life<FredkinCell> 8x5 ***

Generation = 0, Population = 31.
000-0
0-00-
0--00
00000
-0000
00000
00--0
0000-

Generation = 2, Population = 20.
-00--
0--0-
-0-20
---02
1-0--
-0-22
221--
-202-

Generation = 4, Population = 23.
0-2--
01020
0-040
1-1--
1--1-
---4-
4--12
0224-

Generation = 6, Population = 20.
--40-
2104-
-126-
11---
32---
---4-
-2-34
0--40

Generation = 8, Population = 20.
2---1
4-061
--4-1
-3-1-
3--31
---63
5-154
-2---

*** Life<FredkinCell> 10x3 ***

Generation = 0, Population = 29.
000
000
000
000
000
-00
000
000
000
000

Generation = 3, Population = 16.
010
3-3
-01
-0-
--1
---
--1
3-1
--3
010

Generation = 6, Population = 13.
---
-1-
---
4--
112
223
---
4--
303
--0

Generation = 9, Population = 14.
0--
6-3
--2
512
---
---
-03
513
-03
---

*** Life<FredkinCell> 1x9 ***

Generation = 0, Population = 9.
000000000

Generation = 3, Population = 4.
1-0---0-1

Generation = 6, Population = 4.
-0-0-0-0-

Generation = 9, Population = 4.
1-0---0-1

*** Life<FredkinCell> 9x15 ***

Generation = 0, Population = 54.
-00--00-0-0-000
-------00-0----
-0--0---000----
0----0-0--0-0--
---000----0--00
0--00---000-0-0
-0----0000-----
---0-0---000-00
0-0---000----0-

Generation = 2, Population = 63.
1-2-12-1-0-0202
0-----0221-----
-0--0-01--21---
--0-12--0-0----
-01020--1-01--0
-0-0-0--02--012
0-1------2-1--0
11--00----0-00-
00---02-2-11-2-

Generation = 4, Population = 67.
31203----2----4
2-----02-1-0---
000-2101102----
-12-320-2-0--01
-----21-1----1-
0-0--21-0----1-
2--0--10-4-11--
31-1-000-021-0-
00--00-02--31-1

*** Life<FredkinCell> 15x14 ***

Generation = 0, Population = 58.
-0-0------0--0
0---------0---
00-00---0-----
------00------
0----0--00000-
-0-0---0-0--0-
-0-------000--
----0---0-----
-------0--0--0
0------0-----0
-0-0---0---00-
--0-----------
---000---0----
-0--0-00-0----
---0000--00---

Generation = 1, Population = 105.
----0----0100-
10--0---0010-0
-1-1100--00---
-0-00-1100000-
---00--011---0
-1--000-0-0010
01000--0---1--
-0-0-0-----0-0
0---0-01-0-001
---0--0-0-00-1
--0-0-010-011-
---000-0-0-00-
-0-111-0010---
0-00---1------
-0011---0-10--

Generation = 2, Population = 100.
00-010----211-
2-0---001---0-
--------011000
01-110-21-1-1-
--0-1-0---0-01
-2-01-1-1011--
1--1-0--------
0101-----00-01
---0-0-20-01-2
0---00--10-1-2
-0--10-2-0----
-0----0--1---0
--022--1-21-0-
---1000200-0--
-11220----210-

Generation = 3, Population = 110.
-101-1-0003--0
30--0-1----0--
-10110001-2--1
12022113-0-0-0
00---01----0-2
--0--02-2-22-0
21--0---0--100
---20--0-1-01-
-0-101-3----0-
-----100--02-3
-100--0-0-01--
01-0---00-----
--13--020320--
-002-1-3---10-
02-33--00-3210

Generation = 4, Population = 103.
---21-01--4-1-
41001-20-01-0-
0212-1-121-002
--133---1-11--
--00-12-11----
-2-0----3-331-
32--1-0-1--21-
0-0-1-010---2-
0---1-0-00011-
--0---1--0--0-
----1-1-1---10
1---0-0-1-----
00-42-1-1-----
--130-0-0002--
1-1-4-0-1-4321

Generation = 5, Population = 98.
01------0-5-20
-21--0-11--0--
-3-3--0-3---13
1-2-411---2--0
---1123-220-0-
-301-0-0-044-0
----2-10-0--20
-1----1-1-00-1
10-12--3-1--22
00-0-1-011----
0-002---2--1-1
2--------1--00
-11-3-----20--
---41---1-1--0
--235-1-20-4-2

Generation = 6, Population = 113.
1----1--1--131
-32-1-2220--0-
-4---111412-2-
-2---223--3111
000-2--03310-2
04---1-13155-1
--0--0--110231
-202-02---11--
-1--3--4-2--3-
1-0-----2-020-
-1113---300-12
3--0-------01-
-22441--1--1--
-01-2103202201
-234-----14--3

Generation = 7, Population = 89.
--0-----2-5242
--3----3------
0-------52-0--
------3410422-
--1--2-144-10-
--0--2-----61-
321-2----2----
0-131-3-11--21
-20-----0-0142
--1-----3---1-
022240-2----23
-10-00---1----
--355---2---00
012--2--3133--
1-45-010-----4

Generation = 8, Population = 103.
-112------6--3
4340--2-201-00
-41---11--21--
1-2---45-----1
-021233-5-1212
0--1-3213-5--1
--213-1--302-1
1-2-----------
-31-3-04-21---
10--01--410--3
13--5----0-1-4
--1-1-00--0---
024--1-2332-11
--34-3-----4--
22-6---1-1442-

*** Life<FredkinCell> 14x1 ***

Generation = 0, Population = 14.
0
0
0
0
0
0
0
0
0
0
0
0
0
0

Generation = 1, Population = 2.
1
-
-
-
-
-
-
-
-
-
-
-
-
1

Generation = 2, Population = 2.
-
0
-
-
-
-
-
-
-
-
-
-
0
-

Generation = 3, Population = 4.
1
-
0
-
-
-
-
-
-
-
-
0
-
1

Generation = 4, Population = 2.
-
-
-
0
-
-
-
-
-
-
0
-
-
-

Generation = 5, Population = 4.
-
-
0
-
0
-
-
-
-
0
-
0
-
-

Generation = 6, Population = 4.
-
0
-
-
-
0
-
-
0
-
-
-
0
-

Generation = 7, Population = 8.
1
-
0
-
0
-
0
0
-
0
-
0
-
1

Generation = 8, Population = 2.
-
-
-
-
-
-
1
1
-
-
-
-
-
-
