*** Life<FredkinCell> 8x7 ***

Generation = 0, Population = 42.
-000000
0000000
000000-
0-0---0
00-0--0
00--000
00-0000
-0-0000

*** Life<FredkinCell> 4x17 ***

Generation = 0, Population = 4.
-------0---------
-0---------------
---0-------------
---0-------------

Generation = 15, Population = 41.
--060--002-3000-0
-00+020--2----0--
0-0-0-0--00301020
-50-010-0--3--020

Generation = 30, Population = 15.
-1-----4-6-------
-4-+-------5-4---
-9-+-5-1---------
---------2-9-3-6-

Generation = 45, Population = 33.
-20-0-070--7--0-0
0-0+--0-0-090----
-+-+--0-000-0-0-0
--0-0-0+---+0--7-

*** Life<FredkinCell> 13x5 ***

Generation = 0, Population = 32.
00---
-0000
00--0
00--0
0-000
0-00-
0---0
-000-
00-0-
---0-
-----
0-0-0
---0-

Generation = 8, Population = 39.
--03-
41-20
-402-
2-5-5
01--0
42--5
-2-00
-124-
2-422
-3022
---03
3-253
--1--

Generation = 16, Population = 34.
-2263
-57-1
----1
---5-
2--53
---4-
530--
-55--
--753
54-46
-3237
43--9
---14

Generation = 24, Population = 30.
+-5--
7-+--
-6---
34--+
3---7
-716+
9----
-----
--+96
-83-+
-7--+
5-78+
45--5

Generation = 32, Population = 33.
---95
9-++-
7----
5-+8+
-----
58-8+
-4---
3-6+5
58-+-
+-3--
+--6+
86-++
66---

*** Life<FredkinCell> 1x26 ***

Generation = 0, Population = 23.
00-00000000-0000000-000000

Generation = 1, Population = 8.
11-1------1-1-----1-1----1

Generation = 2, Population = 8.
22--0----0---0---0---0--0-

Generation = 3, Population = 15.
3301-0--0-1-1-0-0-1-1-00-1

Generation = 4, Population = 6.
4--2--00--------------11--

Generation = 5, Population = 11.
-30-00110------------0220-

Generation = 6, Population = 10.
441-1---10----------11--11

Generation = 7, Population = 14.
5-2--0-1211--------0222222

Generation = 8, Population = 8.
---21--2--20------11-----3

Generation = 9, Population = 15.
--23201-21311----0222---2-

Generation = 10, Population = 12.
-43---2-3---20--01--32-2-3

Generation = 11, Population = 17.
5543-0---1-13100122243----

Generation = 12, Population = 7.
6--4--2-3--2---------42---

Generation = 13, Population = 11.
-54-20---13-3-------4532--

Generation = 14, Population = 14.
665-312-324--1-----25--32-

Generation = 15, Population = 17.
7-6-4-3-4-523-0---23653433

Generation = 16, Population = 6.
----------6-4--0-23------4

Generation = 17, Population = 7.
---------2---10--343----3-

Generation = 18, Population = 12.
--------4-6-421014-46--4-4

Generation = 19, Population = 7.
-------2----5----5-5753---

Generation = 20, Population = 8.
------3-4--2-2--1--6--44--

*** Life<FredkinCell> 11x19 ***

Generation = 0, Population = 33.
0-0---------000-0--
---0-----------00--
0-0--------0---00--
----------0--0---00
----------0----0-0-
------------------0
---0----0--------0-
---0-------0-------
---0-------0-------
-------0----0------
-------0-------0---

Generation = 1, Population = 68.
-----------01-1010-
--0-0------000--10-
------------000---0
0-0------01-0-0---1
---------010-00--10
---0----0-0----0-0-
--010--0-0-0----0--
--0-0---0-010----0-
--010--0--01-------
---0--010----0-0---
------010---0-0-0--

Generation = 2, Population = 74.
--0-0-----0--02-2-0
-0---0----0---0----
0---0----00-11-00-1
---0----0--01--0---
0-00-------101--0--
---1------10-0--01-
-0-2-00----1-----0-
-0---0-0-0--10----0
-0-2-0-100---0-0-0-
---1-0---000--0----
---0-0-2-0-0-0-0-0-

Generation = 3, Population = 86.
---------01011-----
----0-0----0001----
---------1-0-20-1--
---1---0----20010-1
--110---0--21-0-1--
00--000--0210100--0
01-3--1--0-2-----1-
0-0-0-01010-2-00-0-
01-3-----1-1-10----
-00---0--1--00-0---
--01-1---101--0---0

Generation = 4, Population = 70.
----0-0-01-12------
---0---0---11--01--
---00-000--1-310201
---2--0--0-0-1--1--
0-22--0-----2---21-
---1---0----1-11---
1-0-0------300--02-
----------1--0-1-10
-------1--0----0-0-
---1---10--01---0-0
---2----0--2-----0-

Generation = 5, Population = 93.
-------012---1-02--
--010-010002------0
--011--11-0-1--1--2
0----0-----122---01
--33001--0--3-0--20
--02----0----1220--
---3-0-0---41--01--
0-0-0--1-12--1-2021
---3--02-11-0101010
--020-0--1--20-----
--030---1103-------

Generation = 6, Population = 99.
--000---2--12--1300
-0-2--1--113-0--101
00-2-----11-2-1-2--
-0--01-000-2-3-11-2
00-4-120--1-4-1----
-0-3--0----11233--0
1-040--1-0-520-12-0
------------2203-3-
0-0400---2-----212-
-0----1---0----0000
-0-4-10222-4-0-----

Generation = 7, Population = 97.
--111000----3-2241-
-10--0-1--2-----21-
11-3-001-2-----1---
0-021-0--------2---
11-50-3-----5-202--
010---10-0---34--11
-11510-------1-2321
-----0-1-----3-4-4-
-11--1--0---01-323-
-1--002-01---00-111
01---21--30---00000

Generation = 8, Population = 61.
-----1--2-11--3-5-0
---2----0--31-10--1
---41-1-------12-0-
--1--1---0--2------
2--------0-2-1-13-0
---3---1--2----30--
--2------0--2-0----
---0---------------
0-24----1--1120-34-
---21-----------2--
1-0----2--14----11-

Generation = 9, Population = 100.
---11-003-2--142--1
--03-01111--2-2---2
----20-112-1-3-----
00------011---0-102
-135-1-0011-5------
0---0-1-00--13---11
-1-5---10--5----3--
0-010---01-1-3--04-
--35---2-212--1--50
--0-20-10-0-2000-1-
----0-1-23250--0-20

Generation = 10, Population = 99.
----21-1-2-1-253512
-11---2-------3--13
110-3-1--31-2-1-20-
1--21--01---2---2-3
2--60-31----6-2-3--
-103-0--1----44--22
1-261--21006---2421
-0--10-1--2----4---
014-0103--2--22--61
-112-12-------1---1
--0412-2--3----1--1

Generation = 11, Population = 92.
-011320------36--2-
---3--3---232---22-
-2-44-2--42-3-2---2
----210-2-12-3-2-0-
3--7-14-0--2713-4--
0214---12-21-5--0--
---7-01-2-1721---3-
010-2-0------3-5---
1--5--1-123213--37-
-----2-1------2----
---5--1-23-5----122

Generation = 12, Population = 91.
01-2---1--21-473-32
----0--1-------03--
1----0-1-53-43--20-
10-2-21-31---4--2--
4--80--1-113--415--
---50-123--2---31--
--2811-23--8-202--1
--1--0-1-1--2------
2-----232-------481
0---2---0-0-2--0--1
--0-1--234--0-012-3

Generation = 13, Population = 118.
12----023232-5--543
-1----3-11-32----23
2--4-1221-4-5-2-312
21-32-2-4212-5-----
5-39--42----7-5262-
0--6102-----1544-22
-1-92-13--1923---3-
012--10---2---0504-
314-0-34--3-----5--
11123221-1--30-12--
11--221345-51-123-4

Generation = 14, Population = 112.
2-1--2--43--3-7365-
0213----2-----3-334
320542--2-5-63--42-
321432----23--02--3
-14+0-53-11-8--3---
1--72-32--2-265-133
122---2430--3-0----
----2211-1--2-1-1-1
4-551-4-2-421323---
2-2--3-202---12-311
-----324---6-023---

Generation = 15, Population = 94.
322-3-02-432----7--
13-----1--2---404-5
4---5-223-61742---2
-------04-342-1----
5-5-11---2239-54-2-
221---43-03-3--42-4
--3---3----9-3-2-3-
-1-------2---3-5---
5-----5-3-5-24-458-
3-3--4--13---23-4-2
1-0-2----53---34-24

Generation = 16, Population = 80.
-33---1--5433-7-853
2-----3----32-----6
5--5--3---728-3-423
--1--2---24-35---03
616-22-----4+---6--
--272--4----4--53--
1249-14-----34--4--
-----------1-------
6-5-----4---352-69-
--42---2--0-----5-3
2-1-------46---533-

Generation = 17, Population = 101.
-442-22246-4----9--
3-13-0-1-12430---3-
62--5-42---394--534
--2--3--43--46--2--
7-7+--53-2-5+---7-0
-238-0--3-----5643-
2-5-225------50-53-
-1-1-21-0-2-2-1--4-
--6------25-4-3--+-
-1533-2--31-323----
--2----4-5-71-3644-

Generation = 18, Population = 93.
-55----3--45-5-3---
4---01--2---4-4-44-
-30---5------532-45
--3---205-445-12---
-18-2264-3-6--5--2-
23--214----24------
--6-3--4--1--612-41
----2----23-33-5--1
-17511----6--5-46+1
32--4---14-04-4-5--
--3-2----648-0---54

Generation = 19, Population = 99.
-662322--6563-7--5-
-3-312---12---5-5--
-4-55-6---7396--5-6
-2-43-316355662-2-3
-----3--0-2-+16-7-0
3-3832-4-0--5--6--4
2-------3-2-3----5-
-1-----1034-441--4-
-----25-427-463-7--
4-5----22---5--161-
2---33------1----65

Generation = 20, Population = 115.
3--343334-6-4-83--3
4-14--3-2-34--6-6-6
6--6627-3584+-32--7
33---3--7--6-------
718-24-41-36+2-48--
4-4-------32------5
3-6932-44-3---1256-
--2--2-2-45-55-5-51
617-136-53--57-48+-
5--34--3--10---27--
313544244--820-6--6

Generation = 21, Population = 88.
46----4---76---4-54
--2512-1-14-40-----
-----3--4-9-+--3-48
4--43-----5-662-2-3
82--3--5-----3-5920
-3-------04--65----
4-7-----50--3-23--1
----2-13------1--62
---5-47-6-7----59--
-25-54242-2-5-43--3
---65--556---1-7-6-

Generation = 22, Population = 103.
57-34------7-58--65
4-3---3-2254-16----
6-0-647--5---6--55-
5-35---1736--73-3--
--8-446-13-----6+--
44--3--4--52---643-
-2-93-5-6--9-6345-2
0-2--2-4045-5525-7-
-1----8-7-825-3-+--
536--535343--254---
-1-7----67----38---

Generation = 23, Population = 90.
-864534-46-8---4976
-34---4-33---2-06-6
---67---4-94+-33-68
6-463-328-766-42---
--9+--7---36-3--+--
5-----4-3-6-56-7-4-
437+-2--7-3+3-4----
-------5-----6-----
627--49---9--------
6-7-564--5---3-----
-23-542---------4--

Generation = 24, Population = 59.
5-7---------458-+--
4--5--5-4-----61---
640--4---5-5-6-457-
----------8--7---03
-2---4---34--4-6---
6-----5-4-----5-4-5
---+----8--------6-
---1-------1-------
---5-------2-------
7-----553---5-5-7--
-3---5-5-7---1-8-6-

Generation = 25, Population = 82.
6-----4-4--85--4-7-
--4-1------442--64-
--1-7-----9--73----
6-4------39-6-4---4
--9-4----4-6+56--2-
---8----5-6----7-4-
4-7+3-5490-+--4----
--2-2---0-525----7-
6-761-947-93--3-+--
---3--664----3-4---
--3-5-266-4---3-4-6

Generation = 26, Population = 90.
-87-53---67---8-+86
435-225-4---5---7-6
64--84----+-+--4578
---6----8--67--2---
82++-4---5-7+---+3-
6-493-5-6--2565--55
---+--6--1-+-6-----
-1---2-5-4--66----2
---7---58------5---
7-74567-55-05---7-3
-3-7---7---8---8---

Generation = 27, Population = 86.
---------78855-----
----3-6----4626----
---------5-5-73-6--
---7---2----87433-4
--++4---1--8+-6-+--
74--426--0636767--6
43-+--7--2-+-----6-
0-2-2-16055-7-25-7-
62-8-----3-3-73----
-38---8--6--63-4---
--38-5---749--3---6

Generation = 28, Population = 70.
----5-4-48-96------
---5---1---57--17--
---68-724--6-844778
---8--3--3-6-8--4--
8-++--7-----+---+3-
---9---4----7-78---
5-7-3------+36--57-
----------6--6-6-82
-------5--9----5-+-
---4---65--07---7-3
---9----6--+-----6-

Generation = 29, Population = 93.
-------359---5-4+--
--563-624356------6
--179--35-+-+--5--9
6----3-----789---04
--++448--5--+-6--40
--4+----6----7894--
---+-2-4---+4--46--
0-2-2--6-57--7-7193
---8--96-3+-5736++1
--855-8--6--83-----
--3+5---774+-------

Generation = 30, Population = 99.
--745---6--96--5+86
-3-7--7--467-2--747
64-8-----5+-+-4-7--
-3--34-283-8-+-34-5
82-+-595--4-+-7----
-4-+--6----3789+--6
5-7+3--5-2-+56-57-2
------------7828-+-
6-7914---4-----7++-
-3----9---3----4713
-3-+-52788-+-1-----

Generation = 31, Population = 97.
--856343----7-86+9-
-45--2-2--7-----85-
75-9-473-6-----5---
6-484-3--------4---
93-+4-+-----+-86+--
754---74-0---9+--57
-38+42-------7-6873
-----2-6-----9-9-+-
-28--5--8---57-8++-
-4--56+-56---35-824
34---63--94---38466

Generation = 32, Population = 61.
-----4--6-89--9-+-6
---7----4--77-61--7
---+9-8-------46-7-
--5--4---3--8------
+--------5-8-5-7+-0
---+---5--6----+4--
--9------2--5-4----
---1---------------
6-99----9--3683-++-
---56-----------9--
4-3----7--5+----57-

Generation = 33, Population = 100.
---56-437-9--5+6--7
--58-27254--8-7---8
----+4-356-6-8-----
63------849---4-405
-3++-5-5164-+------
7---4-7-60--79---57
-3-+---59--+----8--
0-222---05-2-9--1+-
--++---6-4+4--4--+1
--8-76-65-3-8354-2-
----5-3-896+2--8-86

Generation = 34, Population = 99.
----74-4-9-9-6+7+98
-46---8-------8--59
751-+-8--7+-+-4-77-
7--84--29---8---5-6
+--+4-+6----+-8-+--
-54+-2--7----++--68
5-9+4--6+23+---6973
-1--32-6--7----9---
62+-1597--+--85--+2
-495-7+-------6---4
--3+66-7--7----9--7

Generation = 35, Population = 92.
-885854------7+--+-
---8--9---778---86-
-6-++-9--8+-+-5---9
----543-+-98-+-4-0-
+--+-5+-1--8+59-+--
765+---58-63-+--4--
---+-27-+-4+57---8-
022-4-1------9-+---
7--+--+-94+469--++-
-----8-6------7----
---+--3-89-+----588

Generation = 36, Population = 91.
69-6---4--99-8+7-+8
----3--2-------19--
7----4-3-9+-+8--77-
73-8-54-+4---+--5--
+--+4--6-649--+7+--
---+4-769--4---+5--
--9+43-6+--+-846--3
--3--2-6-5--7------
8-----+7+-------++2
7---7---5-3-8--4--4
--3-6--79+--2-396-9

Generation = 37, Population = 118.
7+----4579++-9--++9
-4----9-54-78----69
8--+-5945-+-+-5-889
84-95-5-+598-+-----
+-++--+7----+-+8+4-
7--+528-----7+++-68
-3-+5-77--4+59---8-
024--31---7---2+1+-
92+-1-+8--+-----+--
849588+6-6--93-59--
44--7638++-+3-4+7-+

Generation = 38, Population = 112.
8-8--5--8+--7-+7++-
4568----6-----8-97+
961++6--6-+-+8--99-
955+65----+9--44--6
-3++4-+8-64-+--9---
8--+6-96--6-8++-579
549---88+2--6-4----
----4426-5--7-3-2-3
+-++2-+-+-+46958---
9-+--9-757---47-+24
-----749---+-15+---

Generation = 39, Population = 94.
9+9-8-45-+++----+--
56-----2--7---91+-+
+---+-947-+6+95---9
-------2+-++8-5----
+-+-55---759+-++-4-
965---+7-07-9--+6-+
--+---9----+-9-6-8-
-2-------6---9-+---
+-----+-+-+-7+-9++-
+-+--+--68---58-+-5
4-3-7----+7---6+-8+

Generation = 40, Population = 80.
-++---5--+++7-+-++9
6-----9----78-----+
+--+--+---+7+-6-99+
--5--5---5+-9+---06
+3+-66-----++---+--
--6+6--8----+--+7--
54++-3+-----6+--9--
-----------2-------
+-+-----+---8+5-++-
--+5---7--3-----+-6
5-4-------8+---+79-

Generation = 41, Population = 101.
-++6-5658+-+----+--
7-68-2-2-47892---7-
+6--+-+4---8+9--+++
--6--6--+6--++--5--
+-++--+8-7-++---+-0
-67+-2--9-----++87-
6-+-54+------+4-+8-
-2-2-42-0-7-7-3--+-
--+------4+-9-6--+-
-4+68-+--84-958----
--5----9-+-+3-6+8+-

Generation = 42, Population = 93.
-++----6--++-9-7---
8---33--6---+-9-+8-
-71---+------+66-++
--7---52+-+++-54---
-3+-66+9-8-+--+--4-
97--63+----4+------
--+-6--8--4--+56-93
----4----68-89-+--3
-2++25----+--+-9++2
+5--9---69-0+-9-+--
--6-7----+8+-1---++

Generation = 43, Population = 99.
-++6856--+++7-+--+-
-6-844---47---+-+--
-8-++-+---+8++--+-+
-5-+6-63+6++++6-5-6
-----7--1-5-+5+-+-0
+-7+74-8-0--+--+--+
6-------+-5-6----+-
-2-----6079-9+3--+-
-----6+-+4+-9+6-+--
+-+----77---+--5+2-
5---87------3----++

Generation = 44, Population = 115.
9--796768-+-8-+7--9
8-69--9-6-88--+-+-+
+--++6+-79+9+-66--+
96---6--+--+-------
+3+-68-92-6++6-++--
+-8-------74------+
7-++64-8+-6---56++-
--4--4-7-8+-++-+-+3
+2+-27+-+5--++-9++-
+--69--8--40---6+--
646+9849+--+41-+--+

Generation = 45, Population = 88.
++----8---++---8-++
--7+44-2-49-+2-----
-----7--8-+-+--7-++
+--+6-----+-++6-5-6
+4--7--+-----7-++40
-7-------08--++----
8-+-----+2--6-67--3
----4-28------3--+4
---+-8+-+-+----++--
-5+-+++97-5-+-97--6
---++--+++---2-+-+-

Generation = 46, Population = 103.
++-79------+-9+--++
8-8---9-65+8-3+----
+-1-+8+--9---+--++-
+-7+---3+6+--+7-6--
--+-88+-28-----++--
+8--7--8--94---+87-
-4-+6-+-+--+-+78+-4
0-4--4-908+-++4+-+-
-2----+-+-+4+-6-+--
+6+--+++896--5+8---
-4-+----++----6+---

Generation = 47, Population = 90.
-++8+68-8+-+---8+++
-69---+-76---4-1+-+
---++---8-+9+-67-++
+-8+6-64+-+++-84---
--++--+---6+-7--+--
+-----+-9-+-++-+-8-
85++-4--+-6+6-8----
-------+-----+-----
+3+--8+---+--------
+-+-+++--+---6-----
-56-+84---------8--

Generation = 48, Population = 59.
+-+---------89+-+--
8--+--+-8-----+2---
+81--8---9-+-+-8++-
----------+--+---06
-4---8---87--8-+---
+-----+-+-----+-8-+
---+----+--------+-
---2-------2-------
---+-------4-------
+-----++8---+-+-+--
-6---9-+-+---2-+-+-

Generation = 49, Population = 82.
+-----8-8--+9--8-+-
--9-4------8+4--+8-
--2-+-----+--+6----
+-8------6+-+-8---7
--+-8----9-++9+--4-
---+----+-+----+-8-
8-++6-+8+2-+--8----
--4-4---0-+3+----+-
+-++2-+8+-+5--6-+--
---6--++9----6-8---
--6-+-4++-8---6-8-+

Generation = 50, Population = 90.
-++-+6---++---+-+++
86+-54+-8---+---+-+
+8--+8----+-+--8+++
---+----+--++--4---
+4++-8---+-++---+5-
+-8+7-+-+--4+++--9+
---+--+--3-+-+-----
-2---4-+-8--++----4
---+---9+------+---
+-+7+++-++-0+---+-6
-6-+---+---+---+---

*** Life<FredkinCell> 14x12 ***

Generation = 0, Population = 39.
00---------0
00----------
000---0--00-
0--0------00
------------
0-0----00---
-0-00000--0-
0---------0-
0-0---00----
-----0------
0-----------
---0--------
-0---------0
--0-0-------

Generation = 7, Population = 87.
--00--1-----
3--1--14102-
32520224-222
-1321100-202
1--31-4-0---
1-1--4-2-2--
330-----42--
------2-0--1
312-51----1-
3-0--12-----
-33---23--32
--32---4---0
4--201-11-20
3112-100000-

Generation = 14, Population = 85.
4-2---62--6-
7-----27--4-
6--2-35-35--
4--4-4-04423
--26--8-2-25
4-223--7--54
-625--336-24
3--14-4-302-
523-+----4--
54-132-3----
-7-5-4--2-4-
-3534----2-2
-0--11-4--4-
-233-20--12-

Generation = 21, Population = 78.
542----3-5+-
7------8-2--
-8+--6587--4
----7---5--4
--396-+----7
4--2-6--45--
3-5------6--
----53-231-2
6--6+-7--5-0
5524-2-47-21
4----56----7
3---443---43
815823--339-
7--6-2-3-33-

Generation = 28, Population = 84.
75-4--9-26+5
+--46-38--9-
8---9-9++--7
--8-+8-3-9-7
565+-2-97-69
7---6-6+8---
--7------8-7
-554---436--
94-8+-955---
-6-8---6--45
6-78-78---7-
-7-8---+-7-4
---9-5-77-+4
-5--56-467--

Generation = 35, Population = 95.
+-+64-+7-9+-
+-94---857-+
++--+-+--99-
--+4-8-599-7
866+9-+--6-9
+8--+-9--8-+
++99++78-+-7
+6---7--6---
+----6---75-
-8696548----
7-+-69-55---
6-98-47+6757
+-7--+--85+-
-58--6--8-81

*** Life<FredkinCell> 15x13 ***

Generation = 0, Population = 60.
0------------
0---0-00-----
-00----------
------------0
0---0-----0--
--00----000--
00-00-00---0-
---000--000--
-00--000-----
--0--0-------
-0--0--0-0000
0-00----0-0-0
00-----0-----
0---00----0--
0---00--0----

*** Life<FredkinCell> 12x14 ***

Generation = 0, Population = 6.
--0-0---------
--------------
--------------
------------0-
--------------
--------------
---0----------
--------------
0-------------
--------------
-------0------
--------------

*** Life<FredkinCell> 7x3 ***

Generation = 0, Population = 21.
000
000
000
000
000
000
000

Generation = 1, Population = 12.
-1-
1-1
1-1
1-1
1-1
1-1
-1-

Generation = 2, Population = 6.
---
202
---
---
---
202
---

Generation = 3, Population = 16.
010
3-3
101
---
101
3-3
010

Generation = 4, Population = 0.
---
---
---
---
---
---
---

Generation = 5, Population = 0.
---
---
---
---
---
---
---

Generation = 6, Population = 0.
---
---
---
---
---
---
---

Generation = 7, Population = 0.
---
---
---
---
---
---
---

Generation = 8, Population = 0.
---
---
---
---
---
---
---

Generation = 9, Population = 0.
---
---
---
---
---
---
---

Generation = 10, Population = 0.
---
---
---
---
---
---
---

Generation = 11, Population = 0.
---
---
---
---
---
---
---

Generation = 12, Population = 0.
---
---
---
---
---
---
---

Generation = 13, Population = 0.
---
---
---
---
---
---
---

Generation = 14, Population = 0.
---
---
---
---
---
---
---

Generation = 15, Population = 0.
---
---
---
---
---
---
---

*** Life<FredkinCell> 7x3 ***

Generation = 0, Population = 4.
-0-
-0-
00-
---
---
---
---

Generation = 9, Population = 0.
---
---
---
---
---
---
---

Generation = 18, Population = 0.
---
---
---
---
---
---
---

Generation = 27, Population = 0.
---
---
---
---
---
---
---

Generation = 36, Population = 0.
---
---
---
---
---
---
---

*** Life<FredkinCell> 14x18 ***

Generation = 0, Population = 4.
------------------
----------------0-
----------------0-
------------------
----------------0-
------------------
------------------
------------------
------------------
------------------
---0--------------
------------------
------------------
------------------

*** Life<FredkinCell> 15x16 ***

Generation = 0, Population = 46.
-0----0-------00
--00-------00---
----0---0---0---
--0-0----------0
000----0---0-00-
-0----00-0-0----
---------00-----
--0--------0----
-----0------0---
----------0-----
-----------0----
-00-0--0--------
-0-----0----0-0-
---------------0
-0-0-----------0

Generation = 4, Population = 93.
0---10-10---1---
0241---112--1--1
01--2-2--00-2-23
--2---0-1----3--
2-231--2-3141--0
-2-----2----11-2
----020-3--1122-
01----2---------
101-----10-000--
-2-----2-1-0--00
-3-1---3-20-----
-040-13-1-------
--------1-212-22
----------11-2-4
-----0------223-

Generation = 8, Population = 101.
4-----02-1--2-2-
-6----11-2--22--
-2--2--3-----34-
-24-4----40-3--0
-1-4---6-5-5-521
042--4---2-23114
-241--0--------1
---03-----1--1--
-2-00-1-----210-
---0-------44-12
-3-51--53----34-
-05-13-1-31-1---
061-0412-02-4142
-1----0---23----
---2---3-0004---

Generation = 12, Population = 119.
-----2--12---424
1+-5-123333--24-
--2--1-53-104---
-3-48-----22-60-
4---4--7--1--56-
14343---332--5-6
0253-2215-44-5--
2----15-02----1-
-2-20-23-0224-02
2-3--01-42-65---
2-25130-4-----5-
----5----510--2-
-6-3--53-033-144
--32-2-5----2---
0-1------141647-

Generation = 16, Population = 71.
520-----1-2--4-6
--6723-----4324-
--2-3-8-3-5-8---
-5--------4---0-
543--4-8-7--57-3
---5----434--5-7
----3333--------
---3-1------1-2-
--7-1----2-3----
----3-2---------
---7-5----------
-------1-62--132
2---1--5-0---3-5
-5--------------
-1---------2---2

*** Life<FredkinCell> 22x9 ***

Generation = 0, Population = 81.
0---0---0
-000-0000
0-0-0----
--0-0--00
0--0-000-
0--0----0
-0--0-0--
0---0-00-
----0--0-
00--000--
-00-----0
----000-0
-0-0-0-0-
--00000-0
0-00--0--
00----0--
-----0--0
--00-0-00
-0--0-0--
----0--0-
0-----0--
--00-0--0

*** Life<FredkinCell> 7x19 ***

Generation = 0, Population = 7.
-------------0-----
-----------0-------
--0----------------
---0---------------
----------0--------
-------------------
-----0--0----------

Generation = 20, Population = 25.
-4--3--------2----2
---5-------4---1---
-2----4-1--------4-
-------0-------0---
14----5-------5-23-
---3-------3-------
--2-03-----------3-

Generation = 40, Population = 13.
-6-------+---------
---9-------7-------
------------8-----6
-----------0-------
----3-------2------
-------------------
------5--+----7--7-

*** Life<FredkinCell> 12x23 ***

Generation = 0, Population = 48.
---------0------0-----0
-0---0--------0---0-0--
-------0------0----0--0
---0-0----0---0--------
--0--------------------
-------------0-00----0-
-------0-----0------0--
0---0--0-0-----0-------
---0-----0------------0
00--0-000-----00-------
-0----00-0--------0----
------0-------0--0-----

Generation = 6, Population = 146.
0-0-1--1--------0132-02
10-10-011-0-103--0-0--2
1011-10-0----2-331-02--
-2-1-0-21-200----101---
2-1-2000111--2-1-1-1--0
400140-----0-4-2222-00-
102-1-1101--0-0123-2-1-
-2-12--2-20-121-2--2-0-
002004-0--11---1-120---
--0--2232010454--1-20--
120------1-2--------0--
--1--141200-----12--0--

Generation = 12, Population = 130.
--01---3-------0-7--323
--332------14-6-23---2-
12---3-2151----5-5-433-
--1-10-4----2264--1-203
4-----03-12--4130------
---15--1---11---4-5-4--
2--1---301-2411----3-1-
43-14----220-2-0-6---4-
-4--24-------232--32-20
2-41--24233---822---11-
5-1-2--2-21625311-0-0--
----04613-4013--5--12-4

Generation = 18, Population = 135.
4-2--3---230256-3-4464-
----332---3---+-6-5-3--
-4-50-----2825-9--6--4-
5-23--64-----6-+-518--4
-3-22147-----4--12-43--
--0-6-13-4---+3--67-41-
---1--54----65-5-8--1-2
----6-2724-02-4---23-6-
-6----65----2--404--5--
4353-44-4-5--8+34---33-
---1---42--8-7--5-03131
6531-5-47-4225-2972--14

Generation = 24, Population = 139.
4---2-54-4---7-37----8-
--454759426--4+4767----
-41-----2--8262--966--2
563-6274--4----+1--8---
-5-4-17-3651-46444-----
+70----734-3----88--7--
4----66--6---75-6--4-5-
++---2-928--558-798--72
48---6+-56--82546--4745
75--2-6+--------545--5-
-2---27---5+-783-0-7--2
--5--6669---3644---3-14

Generation = 30, Population = 131.
-79-3---96-34+73+-5----
646778++---5-+-8-+96---
-627-75----+----++---5-
-849-39-8--8998+-6-+9--
--6-519957--8-6----7---
--13843+---73+8--9+3--6
4------647----6-8-----3
-+----4+-+6---------293
5+-----666-4-----+788--
-87----+-78--9-58-7-594
-833--+---7--7-5-2-+4-5
7-----8-+-6-5--7+--4-55

Generation = 36, Population = 131.
---3--95+7----7-+-66-+-
--6-----+67---+--++86+-
682-2-+5555---4-++7--63
--6++9+--1---+-+6-5++-8
9--4-4++787-86--6---3-6
-+2----+-+385+-6+--398-
-8---6-94----9--++94---
--47+------755-5++--3--
-+--7-+--+9--5749+--97-
----3-8---8--+-8+99----
-------+--8+-+-------67
79---9+7+-+55--8++-----

Generation = 42, Population = 167.
-9-3--+9+76-8+-6-+--+++
+5-++-+----+-++++-++6--
-8-+-+-5995--97++-----6
-+-++++++2-+++++7+9-+4-
+9--8-++88-28987-----3-
++67-87-6+5--+++-++4-+8
---7+9-96--6--8++++49-6
+-6-+48+-+-867-8-+-65--
-+7-8---9-+5-+94--+++--
8+--589+8--4----+--88-7
--577+++-9-----89-2-6+-
8-+33++8+7+-7++-+---8-6

*** Life<FredkinCell> 27x21 ***

Generation = 0, Population = 53.
0------0--0-0--------
--0------------------
------------00-------
-------------------0-
---------000------0--
-----------0---------
---------------------
--0-0--0-------00----
-------------0-------
---0---------0-------
----0-0-0-----0------
-----------------00-0
---------------------
----------0-0--------
------0-----0--------
-------0--0----------
----0--0-------------
-------------0-------
------------------0--
----0-----------0----
-------0-------------
--------0---0--0-----
-----0-----------00--
----0------------0---
------------------0--
---------------------
---0------------00---

Generation = 13, Population = 285.
--1491--3----3-2-----
5--22-4----214-21---0
-30-24-1356--3-152-34
002---0--3071---5-2--
-544--61-5--42-16----
-1-2------13----3--5-
22--12-2--2-06-0-230-
0-3-------4-6--253---
1-1---32-01---32-3-3-
433-732--1--140---52-
-0508--6-4322311---05
---1244-21-27--5-5+2-
4-3-4132-2-13--1---04
--1-6---201----12-4--
31-24-20-1-2--3-02-1-
--3-312--32--420-13--
1-05-54-11-22-3------
-1---101-0420---2---0
1-234-32-25--0----42-
-0-141-2-14-4-2-3--0-
-0----0-----20-45-0--
-0--321310---33--034-
-12132-31122-3-----4-
00--3--1221--7-03-23-
-3220-2--142140--1---
10----0----353--0-00-
----204--50308-363--2

Generation = 26, Population = 281.
76--+-6--68-3--6--561
61--5---4-445-056655-
-5607-7--9---+7----7+
426161--3---334---45-
-8+-14-8-8-3-6---8255
837-----2345+--7-----
4-6---+2-825-+84--5--
2-4-8--1--7--3----5-9
446135-------7-856+7-
-+89-5--968+395------
5-7----+-8-9-557---3+
--9-3-8--5--+-7------
-39--66-5773---327-37
--44-2-572628-53----7
6----4-47-5-4-+-2----
-4-----5-4--8---95---
2-397-6-63---69--5--7
-33+---2--6-6-4+--5-2
-6---9-+5-61-26-3783-
-631-22----2+7--4---+
3147--4--6---2-759-25
7-72---4-7--8-96--77-
5554-4-+5-4-2--7---6-
54429-13---7--74-57--
-8---4366-+-7--4--572
231----5-88-7--554---
-8-3-------53-67-6--5

*** Life<FredkinCell> 2x12 ***

Generation = 0, Population = 21.
-00000000000
0000--000000

*** Life<FredkinCell> 4x28 ***

Generation = 0, Population = 3.
--------0-------------------
----------------------------
-----------0---------------0
----------------------------

Generation = 7, Population = 43.
-0----1---3-4--10-----0-0-0-
--0--0-000-0-000-0---0------
---01-22-12-20--0-0-0---0-0-
----000---000----0---0-0---0

Generation = 14, Population = 31.
-14---2-334442-12-013200-0--
----------------------------
2213--424-4--1----1-10-0----
----------------------------

Generation = 21, Population = 53.
-2761-246--44---3--1-20---2-
--0-0-0--0000--0-0--0--000-0
--165-7--3-5-20-1-1----0-00-
---00-0000-000---0------0--0

Generation = 28, Population = 29.
2--6-145-6-----45-3-53-31--0
----------------------------
-5-974-57355423--2-----51---
----------------------------

Generation = 35, Population = 53.
2---12-689-544----5-7---333-
-----0--00-0--00-00000--00-0
6----8+----5--54-34-4357--4-
-0-0-00-0-0----000---00----0

*** Life<FredkinCell> 28x16 ***

Generation = 0, Population = 84.
---0---00--0---0
0--------0-0----
---0-----0----0-
0-00--------0---
--0--0-----0-0-0
---0------------
-----------0---0
-------------0--
----0----------0
----0-------0--0
-0-0-0-0---0----
----0----0-00--0
---0-0-000------
-----0--0---0---
----------------
0-00-------0--0-
-----0--0-0-----
00-0--------00-0
----------------
-----00---0-----
----------0---00
-------0-------0
-------------0--
0--------0----0-
-------000-00---
-------0-------0
0--------00-----
0---------------

*** Life<FredkinCell> 21x13 ***

Generation = 0, Population = 80.
---000-0---0-
0--0-0--0---0
--0---000-0--
----0---0----
---0---------
00-------0---
-000---------
-0-0------0--
0--0-0-0---0-
-0-000-0---0-
-0-0-0----000
0--------0--0
--------00--0
0--0-0-------
0-00--0--0---
-------------
00-00---00---
---0-----0---
-0-0---------
--000------00
-00--0---0000

Generation = 8, Population = 123.
1----1-----42
-2---5-1320--
-10-31--3-2--
--1-2---227--
--11--36-2130
-1---01-----2
3-13--11--1--
--30-2--27-1-
2----21--1-3-
031----30----
---422---082-
-4010----1-22
2-11331----33
2--3--0-01-2-
51--324-3----
-24-2-----001
--11--054-3-2
---421-2-----
3--01---0-0-4
1-2---43-121-
2----1-1--3-2

*** Life<FredkinCell> 23x14 ***

Generation = 0, Population = 12.
--------------
---0----------
0------0------
------0-------
--------------
--------------
-------0------
--------------
--------------
----------0---
---0----0-----
--------------
--------------
--------------
--------------
--------------
0-------0-----
--------------
--------------
---0----------
----0---------
--------------
--------------

Generation = 4, Population = 32.
0------0------
---0---0------
--000--0---0--
--0-------0---
--------------
---0------0---
0------01--0--
------0-------
--------------
------1-------
----1-------1-
--------------
0-------0-----
----------0---
---0----0-----
---0----------
--0-0-------0-
--------------
--------------
-------0------
--------------
--------------
----0---------

Generation = 8, Population = 39.
-------1------
---1------20--
---1--3------0
2-----0-------
2------0------
---0----------
-------------0
--------------
0-------2-----
--11------1---
---1---0---11-
---1--0-------
----2---------
--------------
-------0------
--------------
0-----0-0---0-
----------1---
---10---0-----
-----------0--
--0---------0-
--------------
0-------0-----

Generation = 12, Population = 79.
1-----33---0-2
------2---41-3
--0------003-2
----4-----2---
4-141--10--1--
--2----0---1--
------13-1--00
1--1----------
2-1-0--5----3-
3--1---1------
---2---12--32-
--3----1--3---
0-----4-2---3-
--04----------
---14--04---1-
---2--0----1--
--3-2---0-2-1-
------0-------
----2-------1-
-------0-----0
0-------0-----
----------1---
---00---0-----

Generation = 16, Population = 42.
1-------1-----
---------3-5--
-----3-2----2-
---2--2-4-----
---51---1-----
----------4---
-----3-3------
--------------
-------6------
--3-5---------
------3--1-4--
---4--1-------
2------0------
---4----------
1-------5-----
--------------
----4-2-----1-
---1----------
1------0------
------3--3-2--
---3------4---
----------1---
-------1------

Generation = 20, Population = 101.
--0324-81-----
-----2-1-355--
21-4-3-4-6-42-
--2-5--4--4-1-
----2-------4-
--3-0-0--1-3--
-0-2-524----3-
--------3-----
3---0--84--2--
---4--3-5-1---
2-0-----7-4---
--6----3--3---
--33--50---34-
--342--2------
1-2---22-3-01-
---5-----0-1--
--34---6----1-
---2---2--1---
1-255--01--0--
--0--2-2--6---
----0-------3-
---1--0---3---
1------1--40--

*** Life<FredkinCell> 22x11 ***

Generation = 0, Population = 23.
-0---------
---0-------
-0---------
-----0---0-
-----0-----
-----------
--0--------
-----------
------0----
-----------
-----------
---0-------
--0--00----
------0----
0--0-------
------0----
-0-0---0---
0----------
----------0
-----------
-----------
0--0-------

Generation = 17, Population = 118.
-4111-6---0
1---1-1---0
22-3--340-1
-1------1--
--2--4--323
--2---3--20
---2---0-5-
12----4-1-0
6------5-1-
5-4--3--0-0
2--2350----
4-152+61-32
65-84--6767
-215-0+2--3
4445-2---2-
4221-3-35--
-+-54259--5
---05330---
474---4-52-
-07--5--2-0
---62--811-
--3-2-5--2-

Generation = 34, Population = 102.
2-----+-6--
4---77--43-
4-25-----96
+-47--5----
-4+--8---7-
---9-5---7-
-76-+9---+-
-69+-----3-
87-+6-77---
-3+--8-----
---556---4-
6--9-+--68-
+9----5-+-+
8--+----9-5
-5----+4-76
835-5-+-+26
2-9-9+-+5+-
+--1----+-4
7+--486486-
-5-8--+--2-
8-----6----
-9--+7----5

*** Life<FredkinCell> 15x11 ***

Generation = 0, Population = 57.
---0------0
--0--0-----
0--0-00---0
---0-----00
0-0-0---0-0
-----0-----
--000-0---0
0-00-000---
-00-0---0--
---0-00--00
---0--00---
00--0----0-
--00------0
-0---0--0-0
00-00----0-

Generation = 13, Population = 80.
4---54----2
---6--4-162
-8--2--8525
2334----427
6----262+1-
-1--2-216--
316-3-552--
-5-305-+--5
4-4--0-2--1
-5-3174-26-
412-11-4---
6-----2----
---5--51---
26429-2---8
-17-----5-3

*** Life<FredkinCell> 12x5 ***

Generation = 0, Population = 44.
000-0
0000-
0-000
----0
00-00
-000-
00000
0000-
-0-0-
000-0
00000
00-00

Generation = 2, Population = 30.
-2---
-200-
-102-
0-1-0
2--00
--2--
00-02
002--
-0-2-
--002
-----
001-0
